{
  "project_info": {
    "project_number": "126540864749",
    "firebase_url": "https://soundtify-8078e.firebaseio.com",
    "project_id": "soundtify-8078e",
    "storage_bucket": "soundtify-8078e.appspot.com"
  },
  "client": [
    {
      "client_info": {
        "mobilesdk_app_id": "1:126540864749:android:8bfc1f6c6660eb3adbc0e4",
        "android_client_info": {
          "package_name": "com.soundtify"
        }
      },
      "oauth_client": [
        {
          "client_id": "126540864749-mneio067v8jtq3uivf2hm6ndpe1osb7t.apps.googleusercontent.com",
          "client_type": 3
        }
      ],
      "api_key": [
        {
          "current_key": "AIzaSyCLD3LJ9oIsuSy3PAixIEUBmXkB9uisF7M"
        }
      ],
      "services": {
        "appinvite_service": {
          "other_platform_oauth_client": [
            {
              "client_id": "126540864749-mneio067v8jtq3uivf2hm6ndpe1osb7t.apps.googleusercontent.com",
              "client_type": 3
            }
          ]
        }
      }
    }
  ],
  "configuration_version": "1"
}